…
The example data contains four tsibbles. Each has `time_period` as the
index and `location` as the key:

**Training data** - what your model learns from:

``` r
data$training_data
#> # A tsibble: 1,071 x 13 [1M]
#> # Key:       location [7]
#>     ...1 time_period rainfall mean_temperature disease_cases population parent
#>    <dbl>       <mth>    <dbl>            <dbl>         <dbl>      <dbl> <chr> 
#>  1     0    2000 Jul   430.               23.4             0     58503. -     
#>  2     1    2000 Aug   322.               23.8             0     58503. -     
#>  3     2    2000 Sep   265.               22.7             0     58503. -     
#>  4     3    2000 Oct   103.               22.6             0     58503. -     
#>  5     4    2000 Nov    19.7              20.3             0     58503. -     
#>  6     5    2000 Dec    26.0              19.1             0     58503. -     
#>  7     6    2001 Jan    17.6              19.8             0     60157. -     
#>  8     7    2001 Feb     7.28             22.0             0     60157. -     
#>  9     8    2001 Mar   123.               22.6             0     60157. -     
#> 10     9    2001 Apr    29.6              27.5             0     60157. -     
#> # ℹ 1,061 more rows
#> # ℹ 6 more variables: location <chr>, Cases <dbl>, E <dbl>, month <dbl>,
#> #   ID_year <dbl>, ID_spat <chr>
```

**Future data** - time periods to predict (no `disease_cases`):

``` r
data$future_data
#> # A tsibble: 21 x 11 [1M]
#> # Key:       location [7]
#>     ...1 time_period rainfall mean_temperature population parent location      E
#>    <dbl>       <mth>    <dbl>            <dbl>      <dbl> <chr>  <chr>     <dbl>
#>  1     0    2013 Apr     39.5             26.8     80014. -      Bokeo    8.00e4
#>  2     1    2013 May    170.              25.8     80014. -      Bokeo    8.00e4
#>  3     2    2013 Jun    231.              24.7     80014. -      Bokeo    8.00e4
#>  4     0    2013 Apr    152.              27.2    731598. -      Champas… 7.32e5
#>  5     1    2013 May    236.              26.3    731598. -      Champas… 7.32e5
#>  6     2    2013 Jun    327.              25.1    731598. -      Champas… 7.32e5
#>  7     0    2013 Apr     58.8             25.1    124396. -      LouangN… 1.24e5
#>  8     1    2013 May    162.              24.7    124396. -      LouangN… 1.24e5
#>  9     2    2013 Jun    184.              24.0    124396. -      LouangN… 1.24e5
#> 10     0    2013 Apr     72.5             25.0    282683. -      Oudomxai 2.83e5
#> # ℹ 11 more rows
#> # ℹ 3 more variables: month <dbl>, ID_year <dbl>, ID_spat <chr>
```

**Example predictions** - what your model should output:

``` r
data$predictions
#> # A tibble: 21 × 3
#>    time_period location     samples      
#>    <chr>       <chr>        <list>       
#>  1 2013-04     Bokeo        <dbl [1,000]>
#>  2 2013-05     Bokeo        <dbl [1,000]>
#>  3 2013-06     Bokeo        <dbl [1,000]>
#>  4 2013-04     Champasak    <dbl [1,000]>
#>  5 2013-05     Champasak    <dbl [1,000]>
#>  6 2013-06     Champasak    <dbl [1,000]>
#>  7 2013-04     LouangNamtha <dbl [1,000]>
#>  8 2013-05     LouangNamtha <dbl [1,000]>
#>  9 2013-06     LouangNamtha <dbl [1,000]>
#> 10 2013-04     Oudomxai     <dbl [1,000]>
#> # ℹ 11 more rows
```
…
