Working with Spatio-Temporal Data • chap.r.sdk
…
library(chap.r.sdk)
library(dplyr)
library(tidyr)
library(tsibble)

Working with CHAP Example Data

Let’s start with the example data from the SDK:

data <- get_example_data('laos', 'M')
training_data <- data$training_data

# Examine the structure
training_data
#> # A tsibble: 1,057 x 13 [1M]
#> # Key:       location [7]
#>     ...1 time_period rainfall mean_temperature disease_cases population parent
#>    <dbl>       <mth>    <dbl>            <dbl>         <dbl>      <dbl> <chr> 
#>  1     0    2000 Jul   430.               23.4             0     58503. -     
#>  2     1    2000 Aug   322.               23.8             0     58503. -     
#>  3     2    2000 Sep   265.               22.7             0     58503. -     
#>  4     3    2000 Oct   103.               22.6             0     58503. -     
#>  5     4    2000 Nov    19.7              20.3             0     58503. -     
#>  6     5    2000 Dec    26.0              19.1             0     58503. -     
#>  7     6    2001 Jan    17.6              19.8             0     60157. -     
#>  8     7    2001 Feb     7.28             22.0             0     60157. -     
#>  9     8    2001 Mar   123.               22.6             0     60157. -     
#> 10     9    2001 Apr    29.6              27.5             0     60157. -     
#> # ℹ 1,047 more rows
#> # ℹ 6 more variables: location <chr>, Cases <dbl>, E <dbl>, month <dbl>,
#> #   ID_year <dbl>, ID_spat <chr>
…
library(fabletools)

# Convert monthly to quarterly
quarterly_data <- training_data |>
  index_by(quarter = yearquarter(time_period)) |>
  group_by(location) |>
  summarise(
    disease_cases = sum(disease_cases, na.rm = TRUE),
    rainfall = mean(rainfall, na.rm = TRUE),
    mean_temperature = mean(mean_temperature, na.rm = TRUE),
    population = mean(population, na.rm = TRUE)
  )

quarterly_data
#> # A tsibble: 357 x 6 [1Q]
#> # Key:       location [7]
#>    location quarter disease_cases rainfall mean_temperature population
#>    <chr>      <qtr>         <dbl>    <dbl>            <dbl>      <dbl>
#>  1 Bokeo    2000 Q3             0    339.              23.3     58503.
#>  2 Bokeo    2000 Q4             0     49.7             20.7     58503.
#>  3 Bokeo    2001 Q1             0     49.4             21.4     60157.
#>  4 Bokeo    2001 Q2             1    253.              24.8     60157.
#>  5 Bokeo    2001 Q3             3    337.              23.5     60157.
#>  6 Bokeo    2001 Q4             1     67.2             19.9     60157.
#>  7 Bokeo    2002 Q1             0     33.0             21.0     61812.
#>  8 Bokeo    2002 Q2             2    276.              24.6     61812.
#>  9 Bokeo    2002 Q3             1    370.              23.2     61812.
#> 10 Bokeo    2002 Q4             1    107.              20.0     61812.
#> # ℹ 347 more rows

Aggregate to Yearly Data

yearly_data <- training_data |>
  as_tibble() |>
  mutate(year = lubridate::year(time_period)) |>
  group_by(location, year) |>
  summarise(
    total_cases = sum(disease_cases, na.rm = TRUE),
    mean_rainfall = mean(rainfall, na.rm = TRUE),
    .groups = "drop"
  )

yearly_data
#> # A tibble: 98 × 4
#>    location  year total_cases mean_rainfall
#>    <chr>    <dbl>       <dbl>         <dbl>
#>  1 Bokeo     2000           0          194.
#>  2 Bokeo     2001           5          177.
#>  3 Bokeo     2002           4          197.
#>  4 Bokeo     2003          20          147.
#>  5 Bokeo     2004           0          185.
#>  6 Bokeo     2005           4          175.
#>  7 Bokeo     2006           6          173.
#>  8 Bokeo     2007           1          170.
#>  9 Bokeo     2008         218          205.
#> 10 Bokeo     2009         709          160.
#> # ℹ 88 more rows
…
